27

22 9
16
2 1
14 1
12 6
8 7
9 1
20 0
4 8
2 2
15 5
8 1
9 2
20 4
17 2
4 1
20 8
15 3
36 10

17 20
11
7 14
16 5
13 7
12 8
8 17
14 15
16 14
11 3
4 19
13 8
15 14
30 13

23 19
14
18 14
17 14
20 6
8 2
12 16
12 12
0 9
21 11
22 3
14 5
19 6
9 9
7 16
21 5
33 12

15 16
13
11 7
8 15
5 1
6 5
0 4
13 15
5 9
11 0
7 2
8 13
6 2
3 14
9 9
22 10

22 18
17
4 6
10 5
4 15
3 12
9 11
15 6
14 9
8 10
21 13
15 9
16 16
5 2
5 9
4 6
10 5
18 15
21 16
36 16

20 9
16
0 0
11 5
15 5
12 8
16 1
2 5
9 1
13 6
1 6
6 4
10 3
8 0
17 4
19 0
19 7
18 2
15 15

21 7
11
0 5
7 2
10 2
20 4
17 6
2 6
13 5
18 2
19 6
20 0
14 1
19 13

25 20
19
6 2
10 12
5 17
4 14
17 1
12 16
5 6
22 18
22 11
13 3
3 8
10 5
14 5
1 18
12 8
17 13
8 3
16 18
24 7
34 10

15 20
12
10 11
3 0
9 0
10 16
1 14
13 8
9 9
1 15
9 17
8 14
7 18
7 18
21 14

16 6
12
6 0
8 4
12 3
3 5
10 2
7 5
8 1
14 1
12 5
14 2
5 5
15 5
29 17

26 16
18
6 9
10 0
22 6
2 13
9 6
15 4
23 1
25 9
16 13
19 7
3 14
5 10
22 9
21 7
22 10
13 3
8 13
13 7
17 11

19 20
12
1 1
10 7
14 0
1 7
2 0
13 10
5 18
2 0
8 3
5 5
12 10
8 10
12 15

15 12
20
9 0
12 4
7 7
0 11
5 2
2 4
6 9
1 4
0 8
9 10
1 11
12 3
13 6
8 2
13 9
10 7
5 6
0 10
1 1
10 8
33 15

19 19
14
12 3
5 10
5 9
10 17
1 17
10 6
18 15
17 14
11 16
8 16
9 2
15 3
11 16
2 1
11 18

16 19
20
8 17
12 9
0 9
5 4
5 18
1 12
6 10
14 3
14 18
1 18
12 12
12 4
2 16
15 16
12 3
5 9
10 8
15 8
0 16
14 2
28 14

19 9
18
12 6
12 3
3 3
6 5
14 5
1 1
5 1
9 7
14 2
14 0
3 1
10 2
17 6
18 5
0 7
2 0
15 4
7 5
31 20

26 9
17
16 1
8 6
6 5
23 0
23 4
23 0
13 0
25 6
22 0
0 5
19 7
15 7
16 8
20 7
16 3
18 5
0 5
39 18

22 20
20
20 14
2 13
10 7
2 9
21 3
19 18
4 9
3 1
8 14
12 15
19 19
17 1
6 10
6 13
17 4
10 15
14 12
18 13
16 18
10 3
17 19

21 5
17
13 3
14 3
10 0
16 2
8 0
13 3
0 4
9 4
20 4
8 0
3 0
2 1
17 4
11 0
11 3
13 1
15 3
12 12

22 18
18
21 12
10 16
14 11
21 12
4 4
9 17
16 2
19 11
18 10
7 11
21 13
20 10
21 5
12 10
7 2
2 11
3 1
1 16
26 11

15 17
17
8 9
12 13
9 0
2 15
14 10
2 1
14 0
3 11
14 8
0 16
6 4
1 6
14 11
13 2
13 1
3 11
11 11
35 10

19 12
20
7 6
3 2
18 3
10 7
7 3
13 3
0 8
3 6
7 1
11 5
10 3
15 10
10 6
13 7
12 11
16 2
1 5
13 1
10 6
8 9
39 15

25 14
15
2 6
3 6
15 4
10 1
15 10
24 2
16 3
11 12
22 5
12 9
22 3
5 3
8 7
5 13
12 4
37 13

20 8
14
2 3
11 7
19 6
2 0
0 5
0 7
1 5
19 7
2 1
17 2
11 6
0 5
0 3
13 4
14 14

30 19
13
19 3
7 8
6 4
29 14
12 8
12 16
3 5
1 5
20 16
0 8
28 2
1 18
26 13
21 10

28 18
11
26 0
23 4
19 9
22 8
5 9
10 11
1 2
10 13
12 5
3 9
21 3
14 14

15 17
19
3 6
10 0
10 1
11 2
2 14
0 6
11 12
13 6
9 7
6 13
11 6
6 6
9 12
9 12
13 3
1 9
14 2
11 1
12 15
16 20
