30

15 17
16
0 6
0 12
1 0
1 13
2 2
2 11
3 2
3 13
4 4
4 13
5 4
5 12
6 2
6 10
7 5
7 16
1900 135

8 18
12
0 5
0 13
1 5
1 13
2 0
2 10
3 3
3 14
4 0
4 11
5 5
5 16
908 171

6 11
10
0 0
0 7
1 4
1 10
2 5
2 9
3 1
3 10
4 4
4 7
1810 81

4 18
4
0 5
0 16
1 8
1 10
158 66

12 8
10
0 3
0 7
1 4
1 7
2 2
2 5
3 1
3 5
4 4
4 7
85 56

8 19
14
0 7
0 11
1 8
1 16
2 6
2 11
3 4
3 10
4 6
4 14
5 3
5 14
6 6
6 13
1009 80

7 4
6
0 2
0 3
1 2
1 3
2 0
2 3
190 159

11 4
6
0 2
0 3
1 0
1 3
2 2
2 3
1744 74

7 4
4
0 2
0 3
1 2
1 3
1159 80

16 7
10
0 0
0 5
1 3
1 6
2 3
2 4
3 0
3 6
4 1
4 6
270 199

17 14
22
0 2
0 8
1 2
1 9
2 7
2 12
3 4
3 10
4 4
4 13
5 3
5 8
6 4
6 9
7 1
7 11
8 0
8 12
9 3
9 9
10 6
10 8
34 11

10 11
10
0 3
0 7
1 2
1 10
2 3
2 10
3 4
3 8
4 1
4 8
1467 186

13 4
6
0 1
0 3
1 2
1 3
2 0
2 3
1789 67

9 11
14
0 2
0 6
1 5
1 6
2 5
2 8
3 5
3 6
4 0
4 10
5 0
5 7
6 3
6 10
940 154

12 17
14
0 0
0 14
1 6
1 15
2 2
2 13
3 8
3 9
4 4
4 11
5 7
5 16
6 6
6 16
1230 158

11 20
14
0 6
0 11
1 9
1 12
2 2
2 14
3 9
3 19
4 1
4 19
5 7
5 14
6 9
6 13
1550 109

14 11
14
0 5
0 8
1 0
1 6
2 2
2 8
3 1
3 7
4 5
4 10
5 0
5 8
6 5
6 9
250 175

14 19
22
0 4
0 14
1 5
1 12
2 5
2 15
3 9
3 16
4 4
4 13
5 3
5 17
6 0
6 18
7 9
7 12
8 1
8 15
9 4
9 17
10 6
10 13
1947 174

15 9
10
0 1
0 8
1 4
1 6
2 0
2 7
3 4
3 6
4 2
4 6
484 93

14 4
6
0 0
0 3
1 2
1 3
2 2
2 3
1164 63

7 19
10
0 5
0 17
1 4
1 16
2 8
2 16
3 6
3 17
4 7
4 10
529 64

5 9
4
0 2
0 5
1 2
1 5
1197 121

14 16
24
0 8
0 15
1 8
1 14
2 4
2 11
3 7
3 15
4 5
4 15
5 4
5 11
6 2
6 9
7 0
7 11
8 2
8 14
9 3
9 13
10 0
10 11
11 0
11 10
1068 119

11 6
8
0 1
0 5
1 2
1 4
2 0
2 5
3 3
3 5
1876 54

20 8
10
0 4
0 6
1 4
1 7
2 2
2 7
3 4
3 7
4 3
4 5
1680 135

8 9
10
0 0
0 7
1 2
1 7
2 4
2 8
3 3
3 6
4 2
4 7
597 183

4 13
6
0 2
0 11
1 2
1 10
2 5
2 7
1553 87

15 4
6
0 1
0 3
1 1
1 3
2 0
2 3
406 90

17 14
20
0 7
0 9
1 1
1 12
2 7
2 13
3 7
3 11
4 6
4 13
5 5
5 9
6 3
6 11
7 2
7 11
8 3
8 8
9 5
9 12
242 163

11 17
14
0 2
0 9
1 5
1 16
2 7
2 11
3 7
3 11
4 1
4 14
5 4
5 16
6 3
6 12
1209 70
