*** Life<Cell> 9x7 ***

Generation = 0, Population = 7.
----00-
------0
0------
-------
0------
------0
-------
-----0-
-------

Generation = 2, Population = 18.
0-01**0
----1-0
--0-00-
-------
--0----
----010
0------
---0--1
-------

Generation = 4, Population = 16.
00--..0
--0-1--
--0--*-
-----1-
--0--1-
--1-*-*
0------
-0-----
0------

Generation = 6, Population = 27.
-*--..0
1-*---*
-1*10.1
---0--1
--*10*-
11.-.**
-----0-
--100-1
0-0----

Generation = 8, Population = 20.
1.1-..*
--*---*
0*..*.-
----1-.
1-..-.-
...1..*
1-1-0--
--1---1
0---10-

Generation = 10, Population = 25.
1*.-...
10.---*
**....*
----.-.
1-.*1.-
.*.1**.
-0.---0
0-.1---
0-*1**0

Generation = 12, Population = 29.
-**-...
.-*01-.
.......
-101*1.
10.*-.0
**.1.*.
1**--1-
*-..-1-
*-**.**

Generation = 14, Population = 34.
***1...
*1*-*-.
..*...*
--0.**.
1-**1.0
.******
.**-111
.0..*--
.-.***.

Generation = 16, Population = 31.
***.*..
**.1.-.
..*.*..
1--.*..
1*....*
**.*...
**.1**-
**...**
.1*.***

Generation = 18, Population = 19.
.*.*...
*.*-*0.
*.*.**.
*-1.*..
..*....
....*..
...1*.1
.....*.
.-.....

Generation = 20, Population = 15.
.*..*..
*..-*-.
..*.*..
.11....
.......
...***.
...*..-
...***.
.-.....

Generation = 22, Population = 14.
....*..
..***1.
.*.....
.*-.*..
.......
....*..
..*...-
...**..
.-.**..

Generation = 24, Population = 11.
.....*.
..**..*
.*...*.
..-....
.......
.......
...*..-
....**.
.-.**..

*** Life<Cell> 15x16 ***

Generation = 0, Population = 26.
----------------
-0--------------
-----0-0--00---0
0--------0------
----------------
0-----0------0--
----0---0--0-0--
-0------0-------
00-------------0
--------0-------
----------------
----------------
-----00-0-------
----0-----------
-----0----------

*** Life<Cell> 14x4 ***

Generation = 0, Population = 16.
--00
----
-0-0
--00
----
---0
----
0-0-
00--
-0--
-000
----
--0-
----

*** Life<Cell> 13x12 ***

Generation = 0, Population = 11.
------------
----0---0---
--------0---
------------
-----------0
---------0--
----------00
---0--------
-----------0
-----0------
--0---------
------------
------------

*** Life<Cell> 6x6 ***

Generation = 0, Population = 3.
--00--
-----0
------
------
------
------

Generation = 4, Population = 14.
*1**-1
-111-*
--*0--
------
--00--
-----0

Generation = 8, Population = 12.
.**.-.
*-..1*
10.-.-
---01-
-..*-*
---.-1

*** Life<Cell> 20x1 ***

Generation = 0, Population = 8.
-
0
0
-
-
-
-
-
-
-
-
-
0
0
-
0
0
0
-
0

Generation = 16, Population = 0.
.
.
-
.
-
.
.
-
.
.
.
.
-
.
.
.
-
.
.
.

*** Life<Cell> 5x6 ***

Generation = 0, Population = 7.
---0--
------
0--00-
-0-0-0
------

Generation = 14, Population = 5.
......
1....-
.*..*.
.*..-.
.-*..-

*** Life<Cell> 5x11 ***

Generation = 0, Population = 1.
-----------
---------0-
-----------
-----------
-----------

*** Life<Cell> 8x3 ***

Generation = 0, Population = 14.
---
00-
-00
0--
00-
--0
000
000

Generation = 4, Population = 12.
1*0
11-
1-*
*.-
---
-11
-.*
-*-

Generation = 8, Population = 7.
.*.
..1
***
..-
-1-
-.1
-..
-.-

Generation = 12, Population = 9.
...
...
.*.
.*1
*10
-.-
**.
0.-

Generation = 16, Population = 5.
...
...
...
..1
..-
*.-
*.*
1.-

Generation = 20, Population = 6.
...
...
...
.**
..-
*.-
..*
*.*

Generation = 24, Population = 3.
...
...
...
...
.*-
.**
...
...

*** Life<Cell> 9x7 ***

Generation = 0, Population = 17.
----00-
--0----
---0-0-
-0--0--
----00-
-------
--000-0
--00---
00-----

Generation = 3, Population = 33.
0---.--
1--0000
-*-1---
-00--0-
-0-*1*-
01**1--
0011.--
*--011-
-*0010-

Generation = 6, Population = 25.
-****1-
*1-110-
-.-.-00
*..0---
1--...-
--..---
-...*0-
.0*1.*-
1*--.0*

Generation = 9, Population = 28.
-...*11
*1--..-
0.1.-1*
...0*--
.*1..*-
*1**1*-
-.*..10
*-.*..-
*.1-.0.

Generation = 12, Population = 21.
*.*.***
..-1*.-
*.**-.*
...1.-1
**1...-
..*.-*-
*....-*
.-....-
..1-.-.

Generation = 15, Population = 18.
...**..
.*.*..-
.*..1.*
.....-*
*.*.**-
*..*1.1
..*..-.
.-....-
..-1.-.

*** Life<Cell> 13x20 ***

Generation = 0, Population = 6.
--------------------
---0----------------
--------------------
--------------------
0-------------------
--------------------
--------------------
--------------------
--------------------
--------------------
--------------------
---00---------------
-----------0------0-

Generation = 16, Population = 96.
-0-10-0----.------0-
1-1.-1-0*-0.0------0
-*...1-*-1-.-1*.--0-
-11.-..1-1..-10.----
-*-*.-*1-.-10*.*-1--
0*1.*.1.1-----*-----
-..1*0*--1-*0------1
-..**.*0-----*.1.1--
.0.**.----....**.11*
.-.*1-..11-..*----.1
.0-...1*1**1-*-1*1.0
.*...*.*......--*1.*
-*1*..-**...-.....0*

*** Life<Cell> 9x13 ***

Generation = 0, Population = 2.
-------------
-------------
------0------
-------------
-------------
-------------
-------------
-------------
-----0-------

Generation = 14, Population = 43.
-.-0-1*----1-
---010.-1----
-*.*.-..11-1-
----1--11----
-1--....1.*1-
-.-.**.1.-1--
1..1-.*...-10
-01-*1-0*01--
1-*1-*0*-----

*** Life<Cell> 5x17 ***

Generation = 0, Population = 23.
0-0---0-----0----
----0-------00-0-
000-00-----------
0--00------------
0-000--0--0---0--

Generation = 13, Population = 40.
-...1****0**...*.
.-*..***1**....*.
.**.**01*..-..*0.
..***-1..**-.--0.
........1**.**11.

*** Life<Cell> 6x1 ***

Generation = 0, Population = 6.
0
0
0
0
0
0

Generation = 7, Population = 4.
*
-
*
*
-
*

Generation = 14, Population = 0.
.
-
.
.
-
.

Generation = 21, Population = 0.
.
-
.
.
-
.

Generation = 28, Population = 0.
.
-
.
.
-
.

*** Life<Cell> 6x11 ***

Generation = 0, Population = 14.
---00---0--
-----00----
-----------
0-------0--
--0-----0-0
00-----00--

Generation = 10, Population = 27.
-*-...1.0**
*1.....*1-*
*...**.1*0*
*...-.-..-*
..-*-0*-.01
..-....***.

*** Life<Cell> 8x13 ***

Generation = 0, Population = 1.
-------------
-------------
-------------
-------------
-------------
-------------
--0----------
-------------

*** Life<Cell> 4x19 ***

Generation = 0, Population = 11.
-0-----------------
------0-----------0
---0-0-0-----------
-0--0-0-0---------0

Generation = 2, Population = 15.
-0---0-0-----------
-1----0---------0--
---0---0-0---------
-010------0-----0-0

Generation = 4, Population = 24.
-*-0---0-----------
-.1-0---0-0---0-0--
-----0---0-0-------
1*1-100-0-0-0-0-0-0

Generation = 6, Population = 18.
-.---0-0---0-------
-.---00-----0------
-------0-0-0-0-----
*.*-***0----0-----0

Generation = 8, Population = 27.
-.-0---0-0---------
0.10-0*-0-0-0-0---0
----111----0-0-0---
...-.**0110---0-0--

Generation = 10, Population = 26.
-.-*1*0------0-0---
-.*0--*-010-----0-0
--1-*-.-0--0---0-0-
...0.*.---*00-0----

Generation = 12, Population = 29.
-.-*1*01-------0---
-**010*0--------0--
01*-*1.*-01--0---0-
...0...---.**0----0

Generation = 14, Population = 29.
-.-...-11-0----0---
0..---*-1*-0010----
**.1.-**1*.----0---
***-...1--.**010---

Generation = 16, Population = 31.
1*-...-*1---11---0-
-*.---.1..**----0--
*.*1*-.....101-*-0-
...0.***1*...01-10-

Generation = 18, Population = 33.
**1*..*..---**10---
*..--0*...*.1--0010
.*...-...*.-01-.0--
.*.-.**.1....0*1*01

Generation = 20, Population = 29.
**1...*..01-**1--1-
..**-*.*....-*10--*
**..*1*....--10*0-0
...-....-....-.-.0.

Generation = 22, Population = 24.
..-**....*.-..-0-10
.*..-..*...*-*1---*
..*...*....1-1*.---
..*1.**.-....1*-*-.

*** Life<Cell> 7x14 ***

Generation = 0, Population = 22.
-00-0---------
-------0------
000-0---000---
--------------
-0-0-----00---
----0------0--
-0---0-00--0--

*** Life<Cell> 5x15 ***

Generation = 0, Population = 16.
--0------000---
-----0----0000-
---0-----------
-------0-0-0---
---------00-0--

Generation = 19, Population = 13.
.........*..*..
-.***.*.*...*..
......-*...*.*.
...........--..
.-.-.......*.*.

*** Life<Cell> 7x7 ***

Generation = 0, Population = 1.
-------
-------
-------
-------
-------
-------
------0

*** Life<Cell> 8x6 ***

Generation = 0, Population = 11.
---000
----0-
---0--
-0----
----0-
0--0--
------
-0---0

*** Life<Cell> 10x18 ***

Generation = 0, Population = 10.
---------0--------
------0-----------
-0------------0---
-----0----0-------
------------------
--------------0---
-------0-----0----
------------------
------------------
-----0------------

*** Life<Cell> 2x1 ***

Generation = 0, Population = 2.
0
0

Generation = 2, Population = 2.
*
*

Generation = 4, Population = 0.
.
.

Generation = 6, Population = 0.
.
.

*** Life<Cell> 9x18 ***

Generation = 0, Population = 17.
-----------0------
0---------------0-
--0------------0--
---------0--------
-0-0----0--0--0--0
--------0---------
------0----0-----0
-----0------------
------------------

*** Life<Cell> 16x19 ***

Generation = 0, Population = 13.
-------0-----0-----
------------------0
-------------------
-------------------
-------0-----0---0-
-----------------0-
-----0-------------
-------------------
-------------------
-------------------
------------------0
-------------------
----0--------------
---0---0-----------
-------------------
----------0--------

Generation = 3, Population = 72.
----0-------------0
-----0-0-0-0-0---0-
-----------------10
---------0-0----0-1
--------0---0--0-10
---0-----0-0-00-01-
--0-0-------0-000*0
---0-0-------0--01-
----0-0------------
----00----------0--
-----0-0-------0---
--------0-------0--
-----0---00------0-
0---0-0-0110------0
-0---0-000--0------
--0---011----0-----

Generation = 6, Population = 95.
-0-0-0-0-0-0-0-0---
------------0-00---
---0-0-0-0-0-0-0---
-------------10-0--
-----0---0-0------1
-----------1----1.0
----0--0-0---1---..
---0---1-----1---*1
-00---1----0--1-1-1
-0-------00----0---
0--11---0---010-000
--------1-010----0-
0-0--00-------0-0-0
-0-0--100*..100----
0------00-1-----0-0
-0--1-**-0000-0-0--

Generation = 9, Population = 121.
----------0-0-0.-10
-------0-0-----11--
------0-0-0--.0-0-1
----00-0-0-----00-1
----*100010-0*-11*.
-00--00*-10.0*-0*.*
0-00--0*000--.*--.*
-0----0*00-0-.-1-.-
------1*0---0-1-*..
-------1-1.000---.-
---..--0-0-0-1---11
------0-*1*-00---1-
-0---1---0-*0-100*0
-------1-....-0--1-
--00-0-*--*--0-0--1
-0-011**11101----0*

Generation = 12, Population = 151.
----00-0-0-0-0-*-*.
---0--00000-00..**1
-0-0---1-1--1.1*11*
----0--1-.*--1--*-*
10-0*-10---10.-.-.*
-.-010-*-.*.1.--*.*
-1-1*-..-0-1*.*--.*
---*10-*1-00-.-*1.1
---1*-1.-*-*.-*0*..
-*-0-1---..1.01--.-
010..-111--*0*11***
-00--011.-.1-100-*-
--*----0-.**10-00*1
--0*-0-*....*-1*1.-
---1**0*11*0-1*0-0*
00*-1*..--*-.10***.

Generation = 15, Population = 128.
0-1-.-*1-1-1*.1*-*.
-*--0-.-01*-11.**.*
--0-011*0.-*....1..
00-1--0-0..-.-*1...
.-0-.*.**-*.1.-.-..
*.011**.-...-..*...
---**0..--01*..-0..
--0*--1..---1.-.-..
1*-.*--.-.**.1.1..*
0.*10--1-..1.1.*-.-
1--..-1..0-.1.-.***
11..-....-.-0*1*-.0
-1.-1100-*.**0-1.*.
0*-.*1**.***.-1*-.-
----..0.1-.-0-.-*-*
*1*--****1*-*--..**

*** Life<Cell> 14x13 ***

Generation = 0, Population = 26.
---0-0-------
0-0--0-------
00-0----0---0
------0-----0
------------0
-----------0-
---------0---
-------------
--0----------
------------0
-0-0-----0-0-
-0------0--0-
--------0----
----0--------

Generation = 16, Population = 74.
.--.-*****-*.
.-..*.....1.*
.......*.*.**
.**...1*.**..
-**....1.*1..
*1*..*.*.*1..
.-.10.-*.****
...*1.*.1..**
...*.....1...
*..*-.*...*1.
*.**.**..*...
.*1..*....1*.
.***...-....*
.**1**.1..*.*

*** Life<Cell> 3x6 ***

Generation = 0, Population = 14.
0-00-0
00-00-
000000

*** Life<Cell> 13x14 ***

Generation = 0, Population = 23.
----0----0---0
----0-0-------
---00--0------
-0--00--------
--------------
---00-----0---
0-------0--0-0
--------------
--------------
----------0---
-------0------
-----0----0---
----0---------

*** Life<Cell> 19x10 ***

Generation = 0, Population = 22.
-----0----
------0---
--------0-
----------
--0--0----
0---------
--00------
0---------
----------
-----0----
----0-0---
-0---0----
-00-0----0
0---------
----------
-----0----
----------
---------0
-------0--

